<svg width="22" height="16" viewBox="0 0 22 16" fill="none" xmlns="http://www.w3.org/2000/svg">
<path d="M9.26668 0.966684C9.53335 1.23335 9.66135 1.55557 9.65068 1.93335C9.64001 2.31113 9.5009 2.63335 9.23335 2.90002L5.46668 6.66668L20.3333 6.66668C20.7111 6.66668 21.028 6.79468 21.284 7.05068C21.54 7.30668 21.6676 7.62313 21.6667 8.00002C21.6667 8.37779 21.5387 8.69468 21.2827 8.95068C21.0267 9.20668 20.7102 9.33424 20.3333 9.33335L5.46668 9.33335L9.26668 13.1334C9.53335 13.4 9.66668 13.7169 9.66668 14.084C9.66668 14.4511 9.53335 14.7676 9.26668 15.0334C9.00001 15.3 8.68313 15.4334 8.31602 15.4334C7.9489 15.4334 7.63246 15.3 7.36668 15.0334L1.26668 8.93335C1.13335 8.80002 1.03868 8.65557 0.982681 8.50002C0.926681 8.34446 0.899124 8.1778 0.900012 8.00002C0.900012 7.82224 0.928016 7.65557 0.984016 7.50002C1.04002 7.34446 1.13424 7.20002 1.26668 7.06668L7.40001 0.933352C7.64446 0.688907 7.94979 0.566683 8.31601 0.566683C8.68224 0.566683 8.99912 0.700018 9.26668 0.966684Z" fill="currentColor"/>
</svg>
